<?xml version="1.0" encoding="UTF-8" standalone="no"?>
<!-- Generator: Adobe Illustrator 17.1.0, SVG Export Plug-In . SVG Version: 6.00 Build 0)  -->

<svg
   xmlns:dc="http://purl.org/dc/elements/1.1/"
   xmlns:cc="http://creativecommons.org/ns#"
   xmlns:rdf="http://www.w3.org/1999/02/22-rdf-syntax-ns#"
   xmlns:svg="http://www.w3.org/2000/svg"
   xmlns="http://www.w3.org/2000/svg"
   xmlns:xlink="http://www.w3.org/1999/xlink"
   xmlns:sodipodi="http://sodipodi.sourceforge.net/DTD/sodipodi-0.dtd"
   xmlns:inkscape="http://www.inkscape.org/namespaces/inkscape"
   version="1.1"
   x="0px"
   y="0px"
   viewBox="0 0 190 60"
   enable-background="new 0 0 190 60"
   xml:space="preserve"
   id="svg378"
   sodipodi:docname="Renault.svg"
   inkscape:version="0.92.4 (5da689c313, 2019-01-14)"><metadata
   id="metadata384"><rdf:RDF><cc:Work
       rdf:about=""><dc:format>image/svg+xml</dc:format><dc:type
         rdf:resource="http://purl.org/dc/dcmitype/StillImage" /></cc:Work></rdf:RDF></metadata><defs
   id="defs382">
	

		
		
		
		
	</defs><sodipodi:namedview
   pagecolor="#ffffff"
   bordercolor="#666666"
   borderopacity="1"
   objecttolerance="10"
   gridtolerance="10"
   guidetolerance="10"
   inkscape:pageopacity="0"
   inkscape:pageshadow="2"
   inkscape:window-width="1920"
   inkscape:window-height="1001"
   id="namedview380"
   showgrid="false"
   inkscape:zoom="2.8284271"
   inkscape:cx="187.53516"
   inkscape:cy="-1.3253795"
   inkscape:window-x="-9"
   inkscape:window-y="-9"
   inkscape:window-maximized="1"
   inkscape:current-layer="svg378" />
<g
   id="Calque_1">
</g>
<g
   id="info_bloc">
</g>
<g
   id="g22">
			<g
   id="g14">
				<path
   d="m 168,23.256 v 2.46 h -5.126 v 10.825 h -3.456 V 25.716 h -5.124 v -2.46 z"
   id="path4"
   inkscape:connector-curvature="0" />
				<path
   d="m 155.771,34.079 v 2.462 H 144.789 V 23.256 h 3.453 v 10.823 z"
   id="path6"
   inkscape:connector-curvature="0" />
				<path
   d="m 89.248,34.079 v 2.462 H 77.711 V 23.256 h 11.32 v 2.461 h -7.864 v 2.919 h 7.186 v 2.382 h -7.186 v 3.06 h 8.081 z"
   id="path8"
   inkscape:connector-curvature="0" />
				<g
   id="g12">
					<path
   d="m 71.521,31.606 c 1.479,-0.802 2.393,-2.383 2.393,-4.04 0,-1.381 -0.403,-2.454 -1.248,-3.159 -0.982,-0.814 -2.328,-1.152 -4.6,-1.152 h -7.924 l -0.141,0.801 c 0,0 0.141,0.239 0.305,0.526 0.246,0.423 0.225,0.547 0.225,0.83 v 11.127 h 3.457 v -4.254 c 0,0 3.031,0 4.294,0 l 2.305,4.254 h 3.805 z M 69.773,29.45 c -0.266,0.26 -0.581,0.385 -1.071,0.385 h -4.714 v -4.049 h 3.724 c 1.108,0 1.7,0.125 2.099,0.449 0.391,0.313 0.58,0.79 0.58,1.494 0,0.727 -0.194,1.312 -0.618,1.721 z"
   id="path10"
   inkscape:connector-curvature="0" />
				</g>
			</g>
			<path
   d="m 103.717,23.254 v 8.812 c -0.806,-1.015 -1.652,-1.993 -3.082,-3.565 -1.164,-1.278 -3.59,-3.899 -4.836,-5.245 h -3.336 l -0.139,0.801 c 0,0 0.143,0.239 0.305,0.526 0.185,0.316 0.222,0.466 0.228,0.637 0,0.014 -0.002,11.32 -0.002,11.32 l 3.105,-0.01 v -8.8 c 0.62,0.826 1.724,2.095 2.459,2.894 1.466,1.585 3.68,4.057 5.403,5.916 h 2.984 V 23.256 Z"
   id="path16"
   inkscape:connector-curvature="0" />
			<path
   d="m 137.551,23.256 v 8.123 c 0,0.906 -0.181,1.445 -0.623,1.859 -0.559,0.52 -1.483,0.769 -2.817,0.769 -1.354,0 -2.302,-0.249 -2.859,-0.769 -0.441,-0.414 -0.622,-0.955 -0.622,-1.859 v -8.123 h -3.846 l -0.14,0.801 c 0,0 0.143,0.239 0.304,0.526 0.175,0.304 0.216,0.453 0.224,0.618 0,0.021 0.003,6.303 0.003,6.303 0,3.473 2.353,5.241 6.89,5.241 h 0.096 c 4.542,0 6.771,-1.719 6.771,-5.241 v -8.249 h -3.381 z"
   id="path18"
   inkscape:connector-curvature="0" />
			<path
   d="m 119.483,23.256 h -4.318 c -1.309,2.705 -3.588,7.695 -5.72,13.285 h 3.468 c 0.276,-0.756 0.57,-1.528 0.865,-2.301 h 7.092 c 0.298,0.773 0.59,1.545 0.865,2.301 h 3.47 c -2.135,-5.59 -4.413,-10.58 -5.722,-13.285 z m -4.713,8.481 c 0.909,-2.263 1.819,-4.404 2.553,-6.064 0.734,1.66 1.648,3.801 2.555,6.064 z"
   id="path20"
   inkscape:connector-curvature="0" />
		</g><rect
   x="183"
   width="7"
   height="60"
   id="rect24"
   y="0"
   style="fill:#ffcd00" /><g
   id="g372">
			<linearGradient
   id="SVGID_1_"
   gradientUnits="userSpaceOnUse"
   x1="23.996401"
   y1="58.8615"
   x2="23.996401"
   y2="1.1382999">
				<stop
   offset="0"
   style="stop-color:#E5E5E5"
   id="stop56" />
				<stop
   offset="0.6866"
   style="stop-color:#FFFFFF"
   id="stop58" />
				<stop
   offset="1"
   style="stop-color:#919191"
   id="stop60" />
			</linearGradient>
			<path
   d="M 46.548,28.873 C 45.526,26.711 43.128,22.031 40.698,17.614 37.273,11.388 31.912,2.522 31.36,1.762 31.211,1.558 31.09,1.42 30.967,1.33 30.898,1.28 30.831,1.245 30.757,1.223 30.62,1.181 30.316,1.206 30.092,1.23 29.972,1.243 29.821,1.24 29.705,1.235 28.561,1.187 26.262,1.139 23.996,1.139 c -2.784,0 -6.138,0.085 -6.573,0.128 -0.226,0.023 -0.311,0.064 -0.396,0.106 -0.111,0.062 -0.224,0.123 -0.404,0.39 -0.523,0.779 -5.904,9.626 -9.329,15.852 -2.43,4.416 -4.827,9.097 -5.85,11.259 -0.271,0.573 -0.311,0.951 -0.311,1.127 0,0.311 0.105,0.689 0.311,1.126 1.022,2.162 3.42,6.842 5.85,11.259 3.425,6.226 8.786,15.092 9.338,15.852 0.086,0.118 0.162,0.214 0.235,0.291 0.124,0.132 0.237,0.209 0.368,0.249 0.137,0.042 0.407,0.017 0.63,-0.007 0.12,-0.013 0.271,-0.009 0.387,-0.005 1.38,0.047 3.499,0.097 5.743,0.096 2.784,-0.001 6.036,-0.073 6.526,-0.129 l 0.078,-0.009 c 0.186,-0.021 0.292,-0.049 0.348,-0.077 0.112,-0.047 0.207,-0.137 0.436,-0.453 0.552,-0.759 5.888,-9.582 9.313,-15.808 2.43,-4.416 4.827,-9.097 5.85,-11.259 0.271,-0.573 0.311,-1.022 0.311,-1.198 0.002,-0.312 -0.103,-0.619 -0.309,-1.056 z m -15.81,2.295 c -2.292,5.139 -3.92,8.343 -6.334,12.984 -0.139,0.268 -0.253,0.442 -0.411,0.445 -0.16,0 -0.27,-0.176 -0.41,-0.446 -2.414,-4.641 -4.042,-7.845 -6.334,-12.984 -0.196,-0.439 -0.334,-0.764 -0.334,-1.177 0.006,-0.401 0.144,-0.729 0.336,-1.16 2.292,-5.139 3.92,-8.343 6.334,-12.984 0.139,-0.268 0.25,-0.442 0.408,-0.445 h 0.001 -0.001 c 0.001,0 0.003,0 0.004,0 0.16,0 0.272,0.175 0.412,0.445 2.414,4.641 4.042,7.845 6.334,12.984 0.196,0.439 0.33,0.763 0.33,1.176 0.001,0.416 -0.143,0.732 -0.335,1.162 z"
   id="path63"
   style="fill:url(#SVGID_1_)"
   inkscape:connector-curvature="0" />
			<defs
   id="defs72">
				<filter
   id="Adobe_OpacityMaskFilter"
   filterUnits="userSpaceOnUse"
   x="1.1339999"
   y="1.138"
   width="45.724998"
   height="57.723">
					
						<feColorMatrix
   type="matrix"
   values="-1 0 0 0 1  0 -1 0 0 1  0 0 -1 0 1  0 0 0 1 0"
   result="source"
   id="feColorMatrix65"
   style="color-interpolation-filters:sRGB" />
					<feFlood
   result="back"
   id="feFlood67" />
					<feBlend
   in="source"
   in2="back"
   mode="normal"
   id="feBlend69" />
				</filter>
			</defs>
			<mask
   maskUnits="userSpaceOnUse"
   x="1.134"
   y="1.138"
   width="45.725"
   height="57.723"
   id="SVGID_2_">
				<g
   id="g81"
   style="filter:url(#Adobe_OpacityMaskFilter)">
					<linearGradient
   id="SVGID_3_"
   gradientUnits="userSpaceOnUse"
   x1="23.271299"
   y1="62.9786"
   x2="23.271299"
   y2="30.4433">
						<stop
   offset="0.8545"
   style="stop-color:#FFFFFF"
   id="stop74" />
						<stop
   offset="1"
   style="stop-color:#000000"
   id="stop76" />
					</linearGradient>
					<rect
   x="-6.092"
   y="30.443001"
   width="58.727001"
   height="32.535"
   id="rect79"
   style="fill:url(#SVGID_3_)" />
				</g>
			</mask>
			
				<radialGradient
   id="SVGID_4_"
   cx="21.9086"
   cy="16.0252"
   r="28.888599"
   gradientTransform="matrix(0.9963,0,0,1,-0.8146,0)"
   gradientUnits="userSpaceOnUse">
				<stop
   offset="0.401"
   style="stop-color:#FFFFFF"
   id="stop84" />
				<stop
   offset="1"
   style="stop-color:#919191"
   id="stop86" />
			</radialGradient>
			<path
   mask="url(#SVGID_2_)"
   d="M 46.548,28.873 C 45.526,26.711 43.128,22.031 40.698,17.614 37.273,11.388 31.912,2.522 31.36,1.762 31.211,1.558 31.09,1.42 30.967,1.33 30.898,1.28 30.831,1.245 30.757,1.223 30.62,1.181 30.316,1.206 30.092,1.23 29.972,1.243 29.821,1.24 29.705,1.235 28.561,1.187 26.262,1.139 23.996,1.139 c -2.784,0 -6.138,0.085 -6.573,0.128 -0.226,0.023 -0.311,0.064 -0.396,0.106 -0.111,0.062 -0.224,0.123 -0.404,0.39 -0.523,0.779 -5.904,9.626 -9.329,15.852 -2.43,4.416 -4.827,9.097 -5.85,11.259 -0.271,0.573 -0.311,0.951 -0.311,1.127 0,0.311 0.105,0.689 0.311,1.126 1.022,2.162 3.42,6.842 5.85,11.259 3.425,6.226 8.786,15.092 9.338,15.852 0.086,0.118 0.162,0.214 0.235,0.291 0.124,0.132 0.237,0.209 0.368,0.249 0.137,0.042 0.407,0.017 0.63,-0.007 0.12,-0.013 0.271,-0.009 0.387,-0.005 1.38,0.047 3.499,0.097 5.743,0.096 2.784,-0.001 6.036,-0.073 6.526,-0.129 l 0.078,-0.009 c 0.186,-0.021 0.292,-0.049 0.348,-0.077 0.112,-0.047 0.207,-0.137 0.436,-0.453 0.552,-0.759 5.888,-9.582 9.313,-15.808 2.43,-4.416 4.827,-9.097 5.85,-11.259 0.271,-0.573 0.311,-1.022 0.311,-1.198 0.002,-0.312 -0.103,-0.619 -0.309,-1.056 z m -15.81,2.295 c -2.292,5.139 -3.92,8.343 -6.334,12.984 -0.139,0.268 -0.253,0.442 -0.411,0.445 -0.16,0 -0.27,-0.176 -0.41,-0.446 -2.414,-4.641 -4.042,-7.845 -6.334,-12.984 -0.196,-0.439 -0.334,-0.764 -0.334,-1.177 0.006,-0.401 0.144,-0.729 0.336,-1.16 2.292,-5.139 3.92,-8.343 6.334,-12.984 0.139,-0.268 0.25,-0.442 0.408,-0.445 h 0.001 -0.001 c 0.001,0 0.003,0 0.004,0 0.16,0 0.272,0.175 0.412,0.445 2.414,4.641 4.042,7.845 6.334,12.984 0.196,0.439 0.33,0.763 0.33,1.176 0.001,0.416 -0.143,0.732 -0.335,1.162 z"
   id="path89"
   style="fill:url(#SVGID_4_)"
   inkscape:connector-curvature="0" />
			<g
   id="g141">
				<linearGradient
   id="SVGID_5_"
   gradientUnits="userSpaceOnUse"
   x1="12.5829"
   y1="58.578201"
   x2="12.5829"
   y2="30.143101">
					<stop
   offset="0.0104"
   style="stop-color:#E5E5E5"
   id="stop91" />
					<stop
   offset="0.3385"
   style="stop-color:#A6A6A6"
   id="stop93" />
					<stop
   offset="0.6941"
   style="stop-color:#333333"
   id="stop95" />
					<stop
   offset="0.8452"
   style="stop-color:#1A1A1A"
   id="stop97" />
					<stop
   offset="0.948"
   style="stop-color:#111111"
   id="stop99" />
					<stop
   offset="0.9623"
   style="stop-color:#141414"
   id="stop101" />
					<stop
   offset="0.9728"
   style="stop-color:#1D1D1D"
   id="stop103" />
					<stop
   offset="0.9821"
   style="stop-color:#2D2D2D"
   id="stop105" />
					<stop
   offset="0.9907"
   style="stop-color:#444444"
   id="stop107" />
					<stop
   offset="0.9987"
   style="stop-color:#616161"
   id="stop109" />
					<stop
   offset="1"
   style="stop-color:#666666"
   id="stop111" />
				</linearGradient>
				<path
   d="m 15.499,31.87 c 0,0 -0.674,-1.26 -0.7,-1.756 -0.003,-0.066 -0.006,-0.088 0,-0.152 0.011,-0.127 -0.038,-0.081 -0.149,0.023 -0.198,0.185 -0.544,0.369 -1.392,0.369 -0.751,0 -7.145,-0.008 -10.192,-0.008 -0.446,0 -1.046,-0.034 -1.046,0.673 0,0.416 0.36,1.253 1.1,2.7 4.043,7.908 8.534,15.807 13.349,23.527 0,0 0.735,1.184 0.81,1.278 0.076,0.094 0.165,0.135 0.345,0.133 0,0 3.053,-5.592 5.52,-11.689 C 20.401,41.906 17.867,36.901 15.499,31.87 Z"
   id="path114"
   style="fill:url(#SVGID_5_)"
   inkscape:connector-curvature="0" />
				<linearGradient
   id="SVGID_6_"
   gradientUnits="userSpaceOnUse"
   x1="17.626801"
   y1="58.6572"
   x2="17.626801"
   y2="58.657001">
					<stop
   offset="0.0104"
   style="stop-color:#E5E5E5"
   id="stop116" />
					<stop
   offset="0.3385"
   style="stop-color:#A6A6A6"
   id="stop118" />
					<stop
   offset="0.6941"
   style="stop-color:#333333"
   id="stop120" />
					<stop
   offset="0.8452"
   style="stop-color:#1A1A1A"
   id="stop122" />
					<stop
   offset="0.948"
   style="stop-color:#111111"
   id="stop124" />
					<stop
   offset="0.9623"
   style="stop-color:#141414"
   id="stop126" />
					<stop
   offset="0.9728"
   style="stop-color:#1D1D1D"
   id="stop128" />
					<stop
   offset="0.9821"
   style="stop-color:#2D2D2D"
   id="stop130" />
					<stop
   offset="0.9907"
   style="stop-color:#444444"
   id="stop132" />
					<stop
   offset="0.9987"
   style="stop-color:#616161"
   id="stop134" />
					<stop
   offset="1"
   style="stop-color:#666666"
   id="stop136" />
				</linearGradient>
				<path
   d="m 17.625,58.657 c 0,0 0.001,0 0.003,0 -0.001,0 -0.002,0 -0.003,0 z"
   id="path139"
   style="fill:url(#SVGID_6_)"
   inkscape:connector-curvature="0" />
			</g>
			<linearGradient
   id="SVGID_7_"
   gradientUnits="userSpaceOnUse"
   x1="32.181801"
   y1="58.577"
   x2="32.181801"
   y2="30.1171">
				<stop
   offset="0.0104"
   style="stop-color:#E5E5E5"
   id="stop143" />
				<stop
   offset="0.3385"
   style="stop-color:#A6A6A6"
   id="stop145" />
				<stop
   offset="0.6941"
   style="stop-color:#333333"
   id="stop147" />
				<stop
   offset="0.8452"
   style="stop-color:#1A1A1A"
   id="stop149" />
				<stop
   offset="0.9538"
   style="stop-color:#111111"
   id="stop151" />
				<stop
   offset="0.9665"
   style="stop-color:#141414"
   id="stop153" />
				<stop
   offset="0.9758"
   style="stop-color:#1D1D1D"
   id="stop155" />
				<stop
   offset="0.9841"
   style="stop-color:#2D2D2D"
   id="stop157" />
				<stop
   offset="0.9917"
   style="stop-color:#444444"
   id="stop159" />
				<stop
   offset="0.9988"
   style="stop-color:#616161"
   id="stop161" />
				<stop
   offset="1"
   style="stop-color:#666666"
   id="stop163" />
			</linearGradient>
			<path
   d="m 46.293,30.072 c -0.11,0.113 -0.418,0.278 -1.107,0.278 -0.245,0 -5.924,0 -8.395,0 -3.849,0 -3.459,-0.103 -4.459,1.933 -0.445,0.906 -0.905,1.972 -1.373,2.847 -3.361,7.027 -11.562,21.18 -12.67,22.934 -0.417,0.66 -0.478,0.695 -0.174,0.695 0,0 2.783,0.102 5.881,0.102 4.837,0 6.568,-0.134 6.568,-0.134 2.806,-4.365 9.496,-15.436 14.273,-25.025 1.1,-2.208 1.652,-3.17 1.597,-3.642 -0.01,-0.09 -0.094,-0.036 -0.141,0.012 z"
   id="path166"
   style="fill:url(#SVGID_7_)"
   inkscape:connector-curvature="0" />
			<linearGradient
   id="SVGID_8_"
   gradientUnits="userSpaceOnUse"
   x1="22.755501"
   y1="29.8097"
   x2="22.755501"
   y2="1.1638">
				<stop
   offset="0"
   style="stop-color:#333333"
   id="stop168" />
				<stop
   offset="0.0088"
   style="stop-color:#292929"
   id="stop170" />
				<stop
   offset="0.0237"
   style="stop-color:#1E1E1E"
   id="stop172" />
				<stop
   offset="0.04"
   style="stop-color:#1A1A1A"
   id="stop174" />
				<stop
   offset="0.1225"
   style="stop-color:#151515"
   id="stop176" />
				<stop
   offset="0.2256"
   style="stop-color:#050505"
   id="stop178" />
				<stop
   offset="0.2521"
   style="stop-color:#000000"
   id="stop180" />
			</linearGradient>
			<path
   d="m 30.342,1.346 c -0.208,-0.01 -0.356,0.148 -0.64,0.588 -2.374,3.676 -10.568,19.114 -13.915,26.314 -0.41,0.882 -0.618,1.312 -0.618,1.74 l 1.746,0.003 c 0,-0.003 -10e-4,0.003 0,0 0.006,-0.401 0.144,-0.729 0.336,-1.16 2.292,-5.139 3.92,-8.343 6.334,-12.984 0.139,-0.268 0.25,-0.442 0.408,-0.445 h 0.001 l 0.678,-1.974 c 2.362,-5.89 5.67,-12.082 5.67,-12.082 z"
   id="path183"
   style="fill:url(#SVGID_8_)"
   inkscape:connector-curvature="0" />
			<linearGradient
   id="SVGID_9_"
   gradientUnits="userSpaceOnUse"
   x1="28.4032"
   y1="30.0084"
   x2="28.4032"
   y2="13.4256">
				<stop
   offset="0"
   style="stop-color:#737373"
   id="stop185" />
				<stop
   offset="0.1485"
   style="stop-color:#6E6E6E"
   id="stop187" />
				<stop
   offset="0.3324"
   style="stop-color:#5E5E5E"
   id="stop189" />
				<stop
   offset="0.5348"
   style="stop-color:#454545"
   id="stop191" />
				<stop
   offset="0.7493"
   style="stop-color:#222222"
   id="stop193" />
				<stop
   offset="0.7954"
   style="stop-color:#1A1A1A"
   id="stop195" />
				<stop
   offset="0.9207"
   style="stop-color:#000000"
   id="stop197" />
			</linearGradient>
			<path
   d="m 32.813,30.007 c 0,-0.427 -0.199,-0.847 -0.609,-1.719 -2.313,-4.913 -4.732,-9.701 -7.531,-14.862 l -0.679,1.975 h -0.001 c 0.001,0 0.003,0 0.004,0 0.16,0 0.272,0.175 0.412,0.445 2.414,4.641 4.042,7.845 6.334,12.984 0.196,0.439 0.33,0.763 0.33,1.176 0,0.005 0,-0.005 0,0 h 1.74 z"
   id="path200"
   style="fill:url(#SVGID_9_)"
   inkscape:connector-curvature="0" />
			<linearGradient
   id="SVGID_10_"
   gradientUnits="userSpaceOnUse"
   x1="19.5814"
   y1="46.608799"
   x2="19.5814"
   y2="30.017599">
				<stop
   offset="0.3571"
   style="stop-color:#BFBFBF"
   id="stop202" />
				<stop
   offset="0.4744"
   style="stop-color:#BABABA"
   id="stop204" />
				<stop
   offset="0.6097"
   style="stop-color:#ACACAC"
   id="stop206" />
				<stop
   offset="0.7539"
   style="stop-color:#959595"
   id="stop208" />
				<stop
   offset="0.9034"
   style="stop-color:#757575"
   id="stop210" />
				<stop
   offset="0.9631"
   style="stop-color:#666666"
   id="stop212" />
				<stop
   offset="1"
   style="stop-color:#333333"
   id="stop214" />
			</linearGradient>
			<path
   d="m 23.993,44.598 c 0,0 0.001,0 0,0 -0.16,0 -0.27,-0.176 -0.41,-0.446 -2.414,-4.641 -4.042,-7.845 -6.334,-12.984 -0.196,-0.439 -0.334,-0.764 -0.334,-1.177 0,-0.001 0,0.001 0,0.001 l -1.746,-0.004 c -0.002,0.43 0.197,0.863 0.61,1.74 v 0 c 2.314,4.914 4.723,9.689 7.523,14.851 z"
   id="path217"
   style="fill:url(#SVGID_10_)"
   inkscape:connector-curvature="0" />
			<linearGradient
   id="SVGID_11_"
   gradientUnits="userSpaceOnUse"
   x1="26.0959"
   y1="40.9841"
   x2="11.0039"
   y2="34.176498">
				<stop
   offset="0.0132"
   style="stop-color:#F2F2F2;stop-opacity:0.8"
   id="stop219" />
				<stop
   offset="0.1096"
   style="stop-color:#EDEDED;stop-opacity:0"
   id="stop221" />
			</linearGradient>
			<path
   d="m 23.993,44.598 c 0,0 0.001,0 0,0 -0.16,0 -0.27,-0.176 -0.41,-0.446 -2.414,-4.641 -4.042,-7.845 -6.334,-12.984 -0.196,-0.439 -0.334,-0.764 -0.334,-1.177 0,-0.001 0,0.001 0,-0.003 l -1.746,-0.003 c -0.002,0.432 0.197,0.866 0.61,1.743 v 0 c 2.314,4.914 4.723,9.689 7.523,14.851 z"
   id="path224"
   style="fill:url(#SVGID_11_)"
   inkscape:connector-curvature="0" />
			<linearGradient
   id="SVGID_12_"
   gradientUnits="userSpaceOnUse"
   x1="25.219101"
   y1="58.475899"
   x2="25.219101"
   y2="29.8246">
				<stop
   offset="0"
   style="stop-color:#FFFFFF"
   id="stop226" />
				<stop
   offset="0.2163"
   style="stop-color:#F9F9F9"
   id="stop228" />
				<stop
   offset="0.5116"
   style="stop-color:#E7E7E7"
   id="stop230" />
				<stop
   offset="0.8508"
   style="stop-color:#CBCBCB"
   id="stop232" />
				<stop
   offset="0.9693"
   style="stop-color:#BFBFBF"
   id="stop234" />
				<stop
   offset="0.9913"
   style="stop-color:#737373"
   id="stop236" />
			</linearGradient>
			<path
   d="m 17.625,58.657 c 0.192,0.009 0.422,-0.225 0.688,-0.63 0.07,-0.112 0.164,-0.266 0.28,-0.457 1.788,-3.046 10.409,-18.957 13.596,-25.814 0.41,-0.882 0.624,-1.322 0.624,-1.749 h -1.739 c 0,-0.001 0,-0.001 0,0 0,0.415 -0.143,0.731 -0.335,1.162 -2.292,5.139 -3.92,8.343 -6.334,12.984 -0.139,0.268 -0.253,0.442 -0.411,0.445 l -0.691,1.98 c -2.493,6.247 -5.678,12.079 -5.678,12.079 z"
   id="path239"
   style="fill:url(#SVGID_12_)"
   inkscape:connector-curvature="0" />
			<linearGradient
   id="SVGID_13_"
   gradientUnits="userSpaceOnUse"
   x1="8.4372997"
   y1="59.6087"
   x2="8.4372997"
   y2="29.999901">
				<stop
   offset="0"
   style="stop-color:#666666"
   id="stop241" />
				<stop
   offset="0.1851"
   style="stop-color:#5E5E5E"
   id="stop243" />
				<stop
   offset="0.584"
   style="stop-color:#515151"
   id="stop245" />
				<stop
   offset="0.9698"
   style="stop-color:#4D4D4D"
   id="stop247" />
				<stop
   offset="0.9879"
   style="stop-color:#757575"
   id="stop249" />
				<stop
   offset="1"
   style="stop-color:#8C8C8C"
   id="stop251" />
			</linearGradient>
			<path
   d="M 16.868,58.528 C 16.795,58.45 16.719,58.355 16.633,58.237 16.081,57.478 10.72,48.611 7.295,42.385 4.865,37.968 2.468,33.288 1.445,31.126 1.239,30.689 1.134,30.311 1.134,30 H 0.006 c 0,0.383 0.083,0.88 0.42,1.612 0.796,1.726 3.024,6.124 5.881,11.321 3.119,5.673 8.782,15.108 9.414,15.972 0.26,0.355 0.482,0.57 0.694,0.704 z"
   id="path254"
   style="fill:url(#SVGID_13_)"
   inkscape:connector-curvature="0" />
			<linearGradient
   id="SVGID_14_"
   gradientUnits="userSpaceOnUse"
   x1="18.3118"
   y1="56.028099"
   x2="29.7141"
   y2="62.611301">
				<stop
   offset="0.0193"
   style="stop-color:#666666"
   id="stop256" />
				<stop
   offset="0.0407"
   style="stop-color:#4A4A4A"
   id="stop258" />
				<stop
   offset="0.0625"
   style="stop-color:#363636"
   id="stop260" />
				<stop
   offset="0.0841"
   style="stop-color:#292929"
   id="stop262" />
				<stop
   offset="0.105"
   style="stop-color:#252525"
   id="stop264" />
			</linearGradient>
			<path
   d="m 16.416,59.609 c 0.304,0.193 0.586,0.218 0.926,0.249 0.843,0.075 4.532,0.136 6.654,0.136 2.122,0 6.106,-0.086 6.654,-0.136 0.26,-0.024 0.499,-0.048 0.745,-0.157 l -0.446,-1.053 c -0.056,0.027 -0.162,0.056 -0.348,0.077 l -0.078,0.009 c -0.49,0.056 -3.742,0.128 -6.526,0.129 -2.244,10e-4 -4.363,-0.049 -5.743,-0.096 -0.116,-0.004 -0.267,-0.008 -0.387,0.005 -0.224,0.024 -0.493,0.049 -0.63,0.007 -0.131,-0.04 -0.243,-0.117 -0.368,-0.249 z"
   id="path267"
   style="fill:url(#SVGID_14_)"
   inkscape:connector-curvature="0" />
			<linearGradient
   id="SVGID_15_"
   gradientUnits="userSpaceOnUse"
   x1="26.9422"
   y1="8.4370003"
   x2="52.216"
   y2="22.274">
				<stop
   offset="0"
   style="stop-color:#595959"
   id="stop269" />
				<stop
   offset="1"
   style="stop-color:#737373"
   id="stop271" />
			</linearGradient>
			<path
   d="m 47.986,29.999 c 0,-0.312 -0.068,-0.878 -0.42,-1.612 C 46.713,26.609 43.986,21.239 41.685,17.066 38.606,11.486 32.93,1.98 32.271,1.095 31.924,0.629 31.663,0.41 31.4,0.296 L 30.967,1.33 c 0.124,0.09 0.244,0.228 0.393,0.432 0.552,0.759 5.913,9.626 9.338,15.852 2.43,4.417 4.827,9.097 5.85,11.259 0.206,0.437 0.311,0.744 0.311,1.055 z"
   id="path274"
   style="fill:url(#SVGID_15_)"
   inkscape:connector-curvature="0" />
			<linearGradient
   id="SVGID_16_"
   gradientUnits="userSpaceOnUse"
   x1="30.7127"
   y1="2.6903999"
   x2="17.022499"
   y2="-1.2352">
				<stop
   offset="0.0096"
   style="stop-color:#595959"
   id="stop276" />
				<stop
   offset="0.0254"
   style="stop-color:#757575"
   id="stop278" />
				<stop
   offset="0.0442"
   style="stop-color:#909090"
   id="stop280" />
				<stop
   offset="0.0609"
   style="stop-color:#A0A0A0"
   id="stop282" />
				<stop
   offset="0.0738"
   style="stop-color:#A6A6A6"
   id="stop284" />
				<stop
   offset="0.5011"
   style="stop-color:#BEBEBE"
   id="stop286" />
				<stop
   offset="1"
   style="stop-color:#BFBFBF"
   id="stop288" />
			</linearGradient>
			<path
   d="m 16.582,0.301 0.446,1.071 c 0.085,-0.041 0.17,-0.083 0.396,-0.106 0.434,-0.044 3.789,-0.128 6.573,-0.128 2.266,0 4.565,0.048 5.709,0.096 0.116,0.005 0.267,0.008 0.387,-0.005 0.224,-0.024 0.528,-0.049 0.665,-0.007 0.074,0.023 0.141,0.057 0.21,0.107 L 31.401,0.295 C 31.149,0.181 30.906,0.167 30.622,0.141 29.745,0.061 25.973,0.005 23.998,0.005 c -1.739,0 -5.777,0.045 -6.723,0.14 -0.293,0.03 -0.511,0.079 -0.693,0.156 z"
   id="path291"
   style="fill:url(#SVGID_16_)"
   inkscape:connector-curvature="0" />
			<linearGradient
   id="SVGID_17_"
   gradientUnits="userSpaceOnUse"
   x1="-3.8248"
   y1="20.0194"
   x2="20.588699"
   y2="10.6479">
				<stop
   offset="0"
   style="stop-color:#8C8C8C"
   id="stop293" />
				<stop
   offset="0.9868"
   style="stop-color:#737373"
   id="stop295" />
				<stop
   offset="1"
   style="stop-color:#BFBFBF"
   id="stop297" />
			</linearGradient>
			<path
   d="M 16.582,0.301 C 16.226,0.452 16.013,0.711 15.684,1.14 15.032,1.991 9.359,11.564 6.308,17.066 4.16,20.94 0.748,27.652 0.425,28.388 0.102,29.124 0.006,29.616 0.006,30 l 1.128,0.001 c 0,-0.176 0.04,-0.555 0.311,-1.127 1.022,-2.162 3.42,-6.843 5.85,-11.259 3.425,-6.226 8.807,-15.073 9.329,-15.852 0.18,-0.268 0.293,-0.328 0.404,-0.39 z"
   id="path300"
   style="fill:url(#SVGID_17_)"
   inkscape:connector-curvature="0" />
			<linearGradient
   id="SVGID_18_"
   gradientUnits="userSpaceOnUse"
   x1="39.4674"
   y1="59.700001"
   x2="39.4674"
   y2="29.9282">
				<stop
   offset="0.019"
   style="stop-color:#252525"
   id="stop302" />
				<stop
   offset="0.2159"
   style="stop-color:#2E2E2E"
   id="stop304" />
				<stop
   offset="0.5991"
   style="stop-color:#3B3B3B"
   id="stop306" />
				<stop
   offset="0.9698"
   style="stop-color:#3F3F3F"
   id="stop308" />
				<stop
   offset="0.9856"
   style="stop-color:#5C5C5C"
   id="stop310" />
				<stop
   offset="1"
   style="stop-color:#737373"
   id="stop312" />
			</linearGradient>
			<path
   d="m 31.395,59.7 c 0.274,-0.121 0.553,-0.348 0.876,-0.796 0.612,-0.849 6.714,-11.037 9.414,-15.972 2.7,-4.934 5.568,-10.62 5.881,-11.321 0.39,-0.873 0.42,-1.3 0.42,-1.612 l -1.128,-0.071 c 0,0.176 -0.04,0.626 -0.311,1.198 -1.022,2.162 -3.42,6.843 -5.85,11.259 -3.425,6.226 -8.761,15.049 -9.313,15.808 -0.23,0.316 -0.324,0.407 -0.436,0.453 -0.001,0 0.002,-0.002 0,0 z"
   id="path315"
   style="fill:url(#SVGID_18_)"
   inkscape:connector-curvature="0" />
			<path
   d="M 30.092,1.23 C 30.112,1.228 30.133,1.226 30.154,1.224 30.153,1.225 29.868,1.442 29.137,1.439 28.269,1.435 26.468,1.399 25.027,1.39 22.365,1.373 19.194,1.422 17.712,1.493 16.926,1.531 16.879,1.616 16.377,2.151 L 16.376,2.15 16.624,1.762 c 0.18,-0.268 0.293,-0.328 0.404,-0.39 0.085,-0.041 0.17,-0.083 0.396,-0.106 0.434,-0.044 3.789,-0.128 6.573,-0.128 2.266,0 4.565,0.048 5.709,0.096 0.115,0.005 0.266,0.008 0.386,-0.004"
   id="path317"
   inkscape:connector-curvature="0"
   style="fill:#ffffff" />
			<g
   id="g366">
				<defs
   id="defs320">
					<path
   id="SVGID_19_"
   d="m 47.993,29.999 c 0,-0.275 -0.055,-0.851 -0.421,-1.614 -0.872,-1.818 -3.583,-7.155 -5.881,-11.321 -0.179,-0.324 -0.365,-0.66 -0.559,-1.005 -2.484,-1.503 -5.395,-2.367 -8.506,-2.367 -3.099,0 -5.999,0.858 -8.477,2.35 0.213,0.406 1.905,3.632 3.449,6.796 1.448,2.967 2.712,5.81 2.852,6.124 0.188,0.424 0.302,0.706 0.302,1.046 0,0.33 -0.112,0.586 -0.298,1.009 l -0.01,0.024 c -0.012,0.028 -1.335,3.011 -2.864,6.144 -1.369,2.803 -2.857,5.669 -3.434,6.77 l -0.027,0.051 c -0.056,0.108 -0.104,0.186 -0.126,0.186 -0.022,0 -0.069,-0.076 -0.124,-0.184 -0.008,-0.015 -0.037,-0.071 -0.085,-0.163 -1.615,-3.09 -2.731,-5.328 -3.382,-6.661 -1.464,-2.996 -2.765,-5.922 -2.858,-6.14 l -0.013,-0.03 c -0.165,-0.388 -0.296,-0.695 -0.296,-1.02 0,-0.328 0.152,-0.686 0.307,-1.026 0.01,-0.021 0.035,-0.079 0.076,-0.171 0.926,-2.099 1.858,-4.103 2.771,-5.955 1.325,-2.689 2.815,-5.567 3.309,-6.517 -4.558,2.948 -7.577,8.087 -7.577,13.934 0,9.148 7.388,16.564 16.502,16.564 2.937,0 5.694,-0.77 8.083,-2.12 0.358,-0.634 0.689,-1.228 0.982,-1.763 2.627,-4.801 5.545,-10.568 5.881,-11.321 0.373,-0.832 0.424,-1.27 0.424,-1.62 z"
   inkscape:connector-curvature="0" />
				</defs>
				<clipPath
   id="SVGID_20_">
					<use
   xlink:href="#SVGID_19_"
   overflow="visible"
   id="use322"
   style="overflow:visible"
   x="0"
   y="0"
   width="100%"
   height="100%" />
				</clipPath>
				<g
   clip-path="url(#SVGID_20_)"
   id="g364">
					<defs
   id="defs328">
						<filter
   id="Adobe_OpacityMaskFilter_1_"
   filterUnits="userSpaceOnUse"
   x="16.181"
   y="13.694"
   width="33.122002"
   height="33.122002">
							<feColorMatrix
   type="matrix"
   values="1 0 0 0 0  0 1 0 0 0  0 0 1 0 0  0 0 0 1 0"
   id="feColorMatrix325" />
						</filter>
					</defs>
					<mask
   maskUnits="userSpaceOnUse"
   x="16.181"
   y="13.694"
   width="33.122"
   height="33.122"
   id="SVGID_21_">
						<g
   id="XMLID_3_"
   style="filter:url(#Adobe_OpacityMaskFilter_1_)">
							<radialGradient
   id="SVGID_22_"
   cx="32.7934"
   cy="30.254801"
   r="4.9379001"
   gradientUnits="userSpaceOnUse">
								<stop
   offset="0.1664"
   style="stop-color:#FFFFFF"
   id="stop330" />
								<stop
   offset="0.1876"
   style="stop-color:#EBEBEB"
   id="stop332" />
								<stop
   offset="0.2456"
   style="stop-color:#BABABA"
   id="stop334" />
								<stop
   offset="0.3083"
   style="stop-color:#8E8E8E"
   id="stop336" />
								<stop
   offset="0.3742"
   style="stop-color:#686868"
   id="stop338" />
								<stop
   offset="0.4441"
   style="stop-color:#474747"
   id="stop340" />
								<stop
   offset="0.5193"
   style="stop-color:#2D2D2D"
   id="stop342" />
								<stop
   offset="0.6017"
   style="stop-color:#191919"
   id="stop344" />
								<stop
   offset="0.6951"
   style="stop-color:#0B0B0B"
   id="stop346" />
								<stop
   offset="0.8088"
   style="stop-color:#030303"
   id="stop348" />
								<stop
   offset="1"
   style="stop-color:#000000"
   id="stop350" />
							</radialGradient>
							<circle
   cx="32.792999"
   cy="30.254999"
   r="4.9380002"
   id="circle353"
   style="fill:url(#SVGID_22_)" />
						</g>
					</mask>
					<radialGradient
   id="SVGID_23_"
   cx="32.742001"
   cy="30.254801"
   r="16.561001"
   gradientUnits="userSpaceOnUse">
						<stop
   offset="0"
   style="stop-color:#FFFFFF"
   id="stop357" />
						<stop
   offset="0.5897"
   style="stop-color:#FFFFFF;stop-opacity:0"
   id="stop359" />
					</radialGradient>
					<circle
   mask="url(#SVGID_21_)"
   cx="32.742001"
   cy="30.254999"
   r="16.561001"
   id="circle362"
   style="fill:url(#SVGID_23_)" />
				</g>
			</g>
			<path
   d="m 30.744,28.831 c -0.092,-0.208 -1.384,-3.116 -2.857,-6.135 -1.605,-3.29 -3.402,-6.709 -3.477,-6.85 -0.145,-0.27 -0.257,-0.445 -0.412,-0.445 -0.156,0 -0.259,0.156 -0.412,0.445 -0.075,0.142 -1.914,3.667 -3.483,6.85 -1.563,3.172 -2.771,5.96 -2.851,6.135 -0.161,0.352 -0.336,0.759 -0.336,1.16 0,0.4 0.152,0.747 0.334,1.177 0.088,0.206 1.388,3.132 2.865,6.156 1.607,3.29 3.401,6.695 3.469,6.829 0.136,0.266 0.253,0.446 0.41,0.446 0.158,0 0.271,-0.175 0.411,-0.445 0.073,-0.141 1.859,-3.541 3.464,-6.829 1.472,-3.016 2.774,-5.937 2.869,-6.155 0.2,-0.456 0.335,-0.757 0.335,-1.162 0.001,-0.406 -0.132,-0.732 -0.329,-1.177 z m -0.29,2.184 -0.01,0.024 c -0.012,0.028 -1.335,3.011 -2.864,6.144 -1.369,2.803 -2.857,5.669 -3.434,6.77 l -0.027,0.051 c -0.056,0.108 -0.104,0.186 -0.126,0.186 -0.022,0 -0.069,-0.076 -0.124,-0.184 -0.008,-0.015 -0.037,-0.071 -0.085,-0.163 -1.615,-3.09 -2.731,-5.328 -3.382,-6.661 -1.464,-2.996 -2.765,-5.922 -2.858,-6.14 l -0.013,-0.03 c -0.165,-0.388 -0.296,-0.695 -0.296,-1.02 0,-0.328 0.152,-0.686 0.307,-1.026 0.01,-0.021 0.035,-0.079 0.076,-0.171 0.926,-2.099 1.858,-4.103 2.771,-5.955 1.61,-3.266 3.463,-6.812 3.479,-6.842 0.052,-0.098 0.097,-0.19 0.127,-0.19 0.03,0 0.077,0.093 0.13,0.192 0.015,0.028 1.827,3.468 3.471,6.839 1.448,2.967 2.712,5.81 2.852,6.124 0.188,0.424 0.302,0.706 0.302,1.046 0.002,0.328 -0.11,0.583 -0.296,1.006 z"
   id="path368"
   inkscape:connector-curvature="0" />
			<path
   d="M 47.572,28.385 C 46.7,26.567 43.989,21.23 41.691,17.064 38.54,11.352 32.915,1.949 32.276,1.092 31.645,0.245 31.292,0.208 30.707,0.146 L 30.621,0.137 C 29.771,0.043 26.165,0 23.996,0 22.138,0 18.192,0.048 17.273,0.14 16.408,0.226 16.173,0.492 15.679,1.137 15,2.022 9.281,11.692 6.302,17.064 4.148,20.948 0.736,27.663 0.419,28.385 0.133,29.037 0,29.55 0,30 c 0,0.479 0.134,0.992 0.421,1.615 0.715,1.551 2.871,5.845 5.881,11.321 3.14,5.711 8.813,15.15 9.415,15.972 0.635,0.867 1.05,0.904 1.625,0.955 0.873,0.078 4.639,0.137 6.654,0.137 2.175,0 6.112,-0.087 6.655,-0.136 0.538,-0.049 1.002,-0.091 1.625,-0.956 0.571,-0.793 6.674,-10.963 9.415,-15.972 2.627,-4.801 5.545,-10.568 5.881,-11.321 0.37,-0.828 0.421,-1.265 0.421,-1.615 0,-0.276 -0.055,-0.852 -0.421,-1.615 z m -0.299,3.096 c -0.335,0.75 -3.247,6.504 -5.87,11.298 -2.737,5.002 -8.824,15.148 -9.393,15.938 -0.535,0.743 -0.875,0.774 -1.388,0.821 -0.537,0.049 -4.456,0.135 -6.625,0.135 -2.01,0 -5.761,-0.058 -6.625,-0.135 C 16.829,59.49 16.53,59.463 15.983,58.715 15.384,57.897 9.726,48.481 6.591,42.778 3.585,37.31 1.433,33.024 0.72,31.478 0.452,30.899 0.328,30.43 0.328,30 c 0,-0.403 0.124,-0.874 0.392,-1.483 0.316,-0.72 3.719,-7.416 5.869,-11.294 2.975,-5.363 8.677,-15.008 9.35,-15.887 0.472,-0.616 0.641,-0.797 1.366,-0.87 0.908,-0.091 4.839,-0.138 6.691,-0.138 2.162,0 5.751,0.043 6.589,0.134 l 0.087,0.009 c 0.546,0.058 0.795,0.084 1.341,0.816 0.635,0.852 6.245,10.232 9.391,15.935 2.295,4.16 5.002,9.49 5.873,11.305 0.338,0.704 0.388,1.225 0.388,1.472 0,0.314 -0.048,0.71 -0.392,1.482 z"
   id="path370"
   inkscape:connector-curvature="0" />
		</g>
<g
   id="LOSANGE">
</g>
<path
   style="stroke:#000000;stroke-width:0.01766627"
   inkscape:connector-curvature="0"
   d="m 152.00556,40.351924 c -0.34891,0 -0.38865,0.01329 -0.4549,0.154577 -0.0787,0.157273 -0.11523,0.332285 -0.106,0.507909 0.0177,0.26057 0.11924,0.423991 0.33566,0.529983 0.11041,0.06188 0.1325,0.06188 0.28267,0.05745 0.1899,-0.01329 0.35773,-0.06631 0.45931,-0.154577 0.0883,-0.07948 0.11484,-0.207579 0.0972,-0.521161 -0.009,-0.242913 -0.0441,-0.42399 -0.0883,-0.476992 -0.053,-0.06177 -0.23408,-0.09719 -0.52557,-0.09719 z m -68.898459,0.01329 c -0.203163,0 -0.287077,0.02646 -0.370992,0.110408 -0.101586,0.101617 -0.123664,0.194328 -0.123664,0.516744 0,0.229662 0.0044,0.282652 0.03533,0.34007 0.07067,0.123671 0.207579,0.220829 0.393075,0.264998 0.132498,0.03088 0.19433,0.03088 0.331243,0 0.216412,-0.05745 0.370992,-0.198745 0.446073,-0.406323 0.01767,-0.0486 0.03092,-0.150172 0.03092,-0.264998 0,-0.154576 0,-0.198745 -0.04417,-0.278247 -0.08834,-0.185494 -0.264995,-0.264985 -0.600654,-0.282652 h -0.09275 z m -21.552854,0.150159 -0.649236,0.0093 c -0.684568,0.0093 -0.764066,0.01771 -0.821481,0.09719 -0.01326,0.02646 -0.03533,0.09719 -0.04859,0.159004 -0.03092,0.163411 -0.0044,0.216412 0.105997,0.242914 0.04417,0.01328 0.128081,0.05302 0.176663,0.09277 0.065,0.03992 0.11237,0.103084 0.132498,0.176661 0.07067,0.203162 0.07509,0.552077 0.08833,4.142745 l 0.0089,3.511167 h 5.140885 l -0.01326,-0.229663 -0.02208,-0.353322 -0.01324,-0.132493 -0.702234,-0.0093 c -0.384242,-0.0093 -1.307304,-0.02214 -2.044871,-0.02646 l -1.342637,-0.01329 v -3.837997 z m 26.773238,2.217122 c -0.719901,-0.0041 -1.408886,0.172245 -1.903542,0.507898 -0.20508,0.148749 -0.386705,0.327398 -0.538821,0.529994 -0.211995,0.309154 -0.415157,0.927472 -0.485822,1.501634 -0.03342,0.379235 -0.03044,0.7608 0.0089,1.139467 0.05831,0.499693 0.181538,0.989648 0.366576,1.457466 0.111446,0.187462 0.244888,0.36094 0.39749,0.516744 0.132498,0.132492 0.441657,0.353322 0.587404,0.432824 0.28266,0.15016 0.631569,0.220828 1.501633,0.309164 0.04417,0 0.29591,0.0041 0.565322,0 0.521155,0 0.75965,-0.02646 1.475133,-0.15017 l 0.370992,-0.06188 0.0044,-0.251746 c 0.0153,-0.17157 0.0034,-0.344481 -0.03533,-0.512327 -0.01325,-0.02214 -0.053,-0.01771 -0.247328,0.02214 -0.768483,0.167827 -1.545799,0.238495 -2.093454,0.189911 -0.834731,-0.07948 -1.267554,-0.309154 -1.63413,-0.883315 -0.119248,-0.189912 -0.15458,-0.309154 -0.220828,-0.719895 l -0.07067,-0.441657 -0.0089,-0.05302 h 4.571149 l -0.0089,-0.596234 c -0.01324,-0.64924 -0.03091,-0.839152 -0.132497,-1.223401 -0.220828,-0.861221 -0.728734,-1.404465 -1.475134,-1.589959 -0.325414,-0.07914 -0.658843,-0.120633 -0.993728,-0.12366 z m 59.548585,0.01771 c -0.80823,0 -1.19247,0.05302 -1.5193,0.216413 -0.41958,0.20316 -0.55207,0.309164 -0.71548,0.582994 -0.20316,0.340072 -0.26499,0.596235 -0.25175,1.006975 0.009,0.225245 0.0177,0.28708 0.0706,0.446074 0.0853,0.296544 0.27112,0.554176 0.52557,0.728728 0.22966,0.141337 0.80823,0.362166 1.21897,0.468158 0.10161,0.02646 0.28708,0.05744 0.41074,0.06631 0.35333,0.03531 0.61833,0.114826 0.91423,0.291498 0.16341,0.09719 0.36216,0.278236 0.44166,0.406323 0.0928,0.141327 0.1325,0.322404 0.10601,0.490232 -0.053,0.353332 -0.35334,0.706654 -0.69783,0.812657 -0.53882,0.16341 -1.95212,0.110409 -2.57486,-0.101618 -0.25174,-0.0839 -0.30474,-0.0839 -0.35332,-0.0093 -0.0626,0.230807 -0.0565,0.474877 0.0177,0.702237 0.20639,0.08205 0.42114,0.141287 0.64041,0.176661 0.88291,0.05357 1.76853,0.04325 2.64995,-0.03088 0.0662,-0.01329 0.17666,-0.04417 0.23849,-0.0662 0.265,-0.11041 0.65366,-0.428408 0.80823,-0.662477 0.13692,-0.207578 0.18991,-0.529993 0.17666,-1.029068 -0.0221,-0.538817 -0.10599,-0.79498 -0.34449,-1.042309 -0.25616,-0.27382 -0.6404,-0.432825 -1.77546,-0.750812 -0.36021,-0.08233 -0.71208,-0.19765 -1.05115,-0.3445 -0.30032,-0.141325 -0.43723,-0.317986 -0.45049,-0.578566 -0.0177,-0.256164 0.0619,-0.485826 0.22083,-0.653654 0.31359,-0.335654 0.92749,-0.415157 2.23038,-0.282664 l 0.66249,0.06188 0.19432,0.01328 0.0221,-0.06631 c 0.0265,-0.08834 0.0795,-0.379822 0.0795,-0.441647 0,-0.08834 -0.0706,-0.154587 -0.26056,-0.220829 -0.32683,-0.12367 -0.88774,-0.189921 -1.63414,-0.189921 z m -5.94029,0 c -0.79497,0 -1.04672,0.03531 -1.38679,0.176672 -0.60508,0.260569 -0.92749,0.600651 -1.04232,1.0953 -0.0522,0.27462 -0.0492,0.5569 0.009,0.830324 0.15066,0.480537 0.50408,0.871068 0.96724,1.068809 0.3489,0.176661 0.79939,0.300321 1.23222,0.344489 0.48582,0.05302 0.90098,0.238496 1.20572,0.54765 0.24733,0.247329 0.2915,0.454908 0.18109,0.781739 -0.0883,0.278237 -0.25617,0.503483 -0.43283,0.591818 -0.12808,0.06188 -0.38424,0.132493 -0.60949,0.167828 -0.54323,0.07948 -1.73129,-0.02646 -2.17736,-0.194328 -0.16784,-0.06188 -0.24733,-0.06188 -0.318,0 -0.0972,0.07948 -0.12808,0.260579 -0.0839,0.503492 0.0309,0.158994 0.0574,0.194328 0.18992,0.242913 0.1899,0.07063 0.92747,0.176661 1.59879,0.220828 0.22083,0.01771 0.90539,-0.0041 1.08648,-0.03531 0.62273,-0.09719 1.04672,-0.309164 1.39121,-0.680153 0.24732,-0.264997 0.30916,-0.481409 0.33125,-1.051143 0.0133,-0.397489 -0.0177,-0.57415 -0.1325,-0.812646 -0.1325,-0.278247 -0.35333,-0.485826 -0.70665,-0.662487 -0.26058,-0.123669 -0.47699,-0.194328 -1.44422,-0.472575 -0.97165,-0.278246 -1.10856,-0.340071 -1.24547,-0.529993 -0.0795,-0.105992 -0.10161,-0.238485 -0.0972,-0.512316 0.009,-0.207578 0.0133,-0.242912 0.0618,-0.344498 0.11925,-0.238486 0.39749,-0.38424 0.88332,-0.463731 0.27824,-0.04417 0.99373,-0.03088 1.57671,0.03088 0.28708,0.02646 0.57415,0.0486 0.6404,0.04417 h 0.12809 l 0.0309,-0.145744 c 0.0221,-0.07948 0.0442,-0.198745 0.0442,-0.264997 0.0177,-0.119242 0.0133,-0.128076 -0.0398,-0.181077 -0.079,-0.05976 -0.16908,-0.103285 -0.26499,-0.128077 -0.39749,-0.132503 -0.75524,-0.167838 -1.57672,-0.167838 z m -6.80151,0 c -1.20571,0 -1.70479,0.106003 -1.84612,0.393084 -0.0618,0.128076 -0.0839,0.437241 -0.0309,0.512316 0.0309,0.04417 0.0441,0.0486 0.13249,0.04417 l 0.23407,-0.04417 c 0.78522,-0.121355 1.5836,-0.13175 2.37171,-0.03088 0.37099,0.07505 0.47257,0.132504 0.64923,0.388667 0.13249,0.198745 0.19875,0.335655 0.25616,0.543233 0.0354,0.128077 0.0441,0.220829 0.0486,0.68457 0.009,0.476992 0.009,0.538817 -0.0177,0.538817 l -0.16341,-0.02646 c -0.88338,-0.126749 -1.77825,-0.153411 -2.66761,-0.07948 -0.36003,0.04004 -0.69761,0.194892 -0.96281,0.441657 -0.23408,0.238497 -0.35332,0.490232 -0.42399,0.927473 -0.0441,0.242913 -0.0309,0.680153 0.0177,0.861231 0.14575,0.534411 0.42399,0.839147 0.97166,1.059976 0.23408,0.08834 0.51231,0.154588 0.73756,0.176661 0.94073,0.07063 1.81963,-0.101616 2.36728,-0.472564 0.14133,-0.09719 0.24733,-0.114837 0.2915,-0.05302 0.0177,0.02646 0.0309,0.08834 0.0309,0.13691 0,0.0662 0.009,0.101617 0.0354,0.12367 0.0574,0.05302 0.29592,0.07506 0.69341,0.0662 0.45049,-0.0093 0.4549,-0.01329 0.4549,-0.216412 0,-0.158994 -0.0397,-0.247319 -0.13691,-0.300321 -0.11042,-0.05745 -0.16783,-0.119253 -0.18991,-0.194328 -0.0442,-0.141337 -0.0618,-0.507909 -0.0883,-1.704795 -0.0618,-2.482118 -0.0972,-2.694113 -0.50349,-3.131354 -0.47698,-0.499066 -0.98047,-0.644819 -2.26569,-0.644819 z m 29.57334,0 c -0.35332,0.0041 -0.68456,0.03088 -0.83915,0.07063 -0.0662,0.01771 -0.30915,0.119253 -0.53882,0.225245 -0.46373,0.220829 -0.54766,0.238496 -0.59181,0.167828 -0.0177,-0.02646 -0.0354,-0.07948 -0.0442,-0.12366 -0.0177,-0.110419 -0.0441,-0.145743 -0.11484,-0.176661 -0.0883,-0.03531 -0.60506,-0.07063 -0.83472,-0.05302 -0.37099,0.02214 -0.46816,0.08834 -0.46816,0.317987 0,0.167838 0.0442,0.229663 0.23407,0.317998 l 0.14134,0.0662 0.0133,1.987448 c 0.004,1.095311 0.0176,2.305457 0.0221,2.694113 l 0.0133,0.702228 h 0.99815 l 0.0133,-1.015809 0.0265,-2.473274 0.0133,-1.457466 0.17667,-0.09719 c 0.31799,-0.181078 0.44166,-0.220829 0.87449,-0.256163 0.40632,-0.03531 1.18363,-0.0486 1.37796,-0.02214 0.58298,0.07505 0.74199,0.362165 0.80822,1.444225 0.009,0.189912 0.0265,1.130635 0.0354,2.089035 l 0.0221,1.76663 c 0,0.04417 1.22338,0.02203 1.32497,-0.02214 0.12366,-0.05745 0.17224,-0.229662 0.0928,-0.357749 -0.0441,-0.07505 -0.17224,-0.172244 -0.26499,-0.203161 -0.0232,-0.0058 -0.0454,-0.0147 -0.0662,-0.02646 l -0.0177,-0.101616 c -0.0583,-0.650501 -0.0848,-1.303456 -0.0795,-1.956541 -0.0221,-1.457466 -0.0486,-1.846122 -0.14575,-2.256863 -0.11483,-0.481408 -0.30033,-0.706654 -0.80823,-0.989318 -0.23059,-0.142472 -0.49339,-0.224499 -0.76408,-0.238496 -0.18549,-0.01771 -0.39749,-0.02214 -0.60948,-0.02214 z m -51.96534,0 c -0.42399,0 -0.85681,0.02214 -1.05998,0.06631 -0.37099,0.08834 -0.72873,0.30033 -1.05997,0.631569 -0.57416,0.57415 -0.79498,1.192479 -0.79498,2.195037 0,0.861231 0.16783,1.665044 0.47698,2.305447 0.11926,0.242912 0.1325,0.260579 0.29592,0.415157 0.51673,0.472575 0.89656,0.627152 1.87703,0.755238 0.19875,0.02646 1.26756,0.0093 1.61647,-0.02646 0.18208,-0.0047 0.36235,-0.03744 0.53441,-0.09719 0.0441,-0.01771 0.15016,-0.03974 0.24733,-0.04859 0.20316,-0.02203 0.25174,-0.0486 0.30473,-0.158994 0.0309,-0.0662 0.0354,-0.132493 0.0354,-0.322404 0,-0.220829 0,-0.238496 -0.0441,-0.287081 -0.0619,-0.06188 -0.18991,-0.06631 -0.33124,-0.0093 -0.43282,0.167828 -1.77546,0.264997 -2.32311,0.163411 -0.94515,-0.176661 -1.40006,-0.552067 -1.5723,-1.302889 -0.0265,-0.110409 -0.10599,-0.671309 -0.10599,-0.737561 0,-0.02214 0.35332,-0.02646 2.28335,-0.02646 h 2.28337 l -0.009,-0.569734 c -0.0133,-0.64482 -0.0486,-0.94515 -0.159,-1.32939 -0.12146,-0.484811 -0.40316,-0.914363 -0.7994,-1.21897 -0.15457,-0.11042 -0.48583,-0.264996 -0.6669,-0.317999 -0.18108,-0.04859 -0.60065,-0.07505 -1.02906,-0.07948 z m 44.44394,0 c -0.5565,0.0041 -1.04232,0.06188 -1.35148,0.167838 -0.41756,0.118359 -0.78702,0.365691 -1.05556,0.706644 -0.23955,0.346613 -0.41322,0.734378 -0.51233,1.143895 -0.075,0.454908 -0.0883,1.912374 -0.0221,2.31428 0.0574,0.353322 0.41074,1.046726 0.68016,1.338223 0.12367,0.132494 0.42399,0.366573 0.5609,0.437241 0.0795,0.03531 0.22965,0.08834 0.33566,0.119243 0.17666,0.04417 0.72432,0.132503 0.94957,0.15017 0.20316,0.01771 1.09088,-0.0093 1.2852,-0.03531 0.26534,-0.05399 0.52229,-0.143111 0.76408,-0.264996 0.60065,-0.300331 1.12622,-0.91865 1.24105,-1.444216 0.15458,-0.711071 0.15016,-2.296623 -0.009,-2.959099 -0.0883,-0.362166 -0.37982,-0.79499 -0.74197,-1.095311 -0.51675,-0.428407 -0.91424,-0.54766 -1.88148,-0.57416 h -0.2429 z m -28.05405,0.0041 h -0.17666 c -0.87007,0.02646 -1.17482,0.11042 -1.57231,0.428408 -0.27824,0.220828 -0.3224,0.220828 -0.34891,-0.03088 -0.0309,-0.27383 -0.0883,-0.295914 -0.73756,-0.295914 -0.45049,0 -0.45933,0 -0.55649,0.04859 -0.0637,0.02686 -0.11446,0.07758 -0.14132,0.141327 -0.0266,0.05312 -0.0459,0.109565 -0.0574,0.167827 -0.0133,0.101617 0.0485,0.167828 0.28709,0.309165 l 0.18549,0.114826 v 3.983751 l 0.009,3.983741 h 1.01139 v -1.554634 c 0,-0.852398 0,-1.550219 0.009,-1.550219 0.009,0 0.0972,0.06188 0.19875,0.13692 0.46374,0.340072 0.97605,0.485826 1.75338,0.485826 0.5874,0 1.21455,-0.09719 1.4928,-0.229663 0.39749,-0.185494 0.74197,-0.578577 0.9893,-1.126227 0.19875,-0.450491 0.20759,-0.494659 0.20759,-1.824049 0,-1.386797 -0.004,-1.408881 -0.2915,-2.000699 -0.0888,-0.231114 -0.22411,-0.441555 -0.39749,-0.618318 -0.27891,-0.218387 -0.59239,-0.388568 -0.92747,-0.503493 -0.15901,-0.04417 -0.53,-0.07063 -0.93632,-0.06631 z m -9.45146,0 -0.16342,0.0041 c -1.10414,0.03974 -1.6032,0.207579 -2.10228,0.697821 -0.56973,0.565317 -0.71549,1.135061 -0.68899,2.680862 0.0133,0.688977 0.0354,0.949557 0.12367,1.285222 0.10162,0.415157 0.24291,0.662476 0.53882,0.97164 0.14734,0.156257 0.3226,0.283581 0.51675,0.375406 0.31798,0.158994 0.98047,0.322415 1.40887,0.353332 0.52515,0.02656 1.05164,0.0029 1.5723,-0.07063 0.60065,-0.132493 0.60065,-0.132493 0.60949,-0.42399 0.004,-0.220829 -0.0222,-0.401907 -0.0663,-0.441658 -0.0177,-0.01328 -0.0839,-0.0093 -0.26499,0.02646 -0.42336,0.0925 -0.8565,0.132546 -1.28964,0.119243 -0.60508,0 -0.86565,-0.03088 -1.05115,-0.114827 -0.18549,-0.08834 -0.43282,-0.264996 -0.60948,-0.43724 -0.24733,-0.24733 -0.34449,-0.476992 -0.41075,-0.971651 -0.0354,-0.291487 -0.0309,-1.501634 0.009,-1.797537 0.0706,-0.481409 0.16341,-0.684571 0.45932,-0.980485 0.33125,-0.326821 0.50792,-0.397489 1.13507,-0.446064 0.33566,-0.02646 0.89214,-0.01328 1.38238,0.03088 0.17225,0.01329 0.38865,0.02646 0.48582,0.02646 h 0.17666 l 0.0309,-0.06188 c 0.0177,-0.04417 0.0265,-0.141337 0.0265,-0.300331 0,-0.229663 0,-0.238496 -0.053,-0.287081 -0.0706,-0.07063 -0.27824,-0.141326 -0.5079,-0.176661 -0.28265,-0.03531 -0.8524,-0.06188 -1.26314,-0.06188 z m -20.607702,0.0177 c -0.688987,0 -1.033475,0.04417 -1.280805,0.16342 -0.163405,0.0839 -0.242907,0.176661 -0.278242,0.335655 -0.02649,0.12366 -0.0091,0.304748 0.03092,0.366573 0.04412,0.0662 0.101611,0.07063 0.362155,0.02646 0.39749,-0.06631 1.112978,-0.114826 1.620882,-0.114826 0.322409,0 0.724312,0.04417 0.905402,0.09277 0.82979,0.54485 0.8332,1.115753 0.8701,2.022794 v 0.132493 l -0.17223,-0.03975 c -0.54766,-0.11041 -2.031624,-0.172244 -2.561607,-0.101617 -0.7199,0.08834 -1.135056,0.335655 -1.355885,0.794979 -0.163416,0.340082 -0.216417,0.737572 -0.163416,1.227804 0.05298,0.468158 0.136915,0.68457 0.357744,0.892148 0.278242,0.264997 0.662486,0.441658 1.183646,0.538827 0.242897,0.04417 1.126212,0.02646 1.439798,-0.02646 0.43019,-0.0575 0.83967,-0.219775 1.19246,-0.472575 0.0498,-0.03853 0.10482,-0.06977 0.16342,-0.09277 0.0441,0 0.0706,0.07948 0.0706,0.203162 0,0.207578 0.0441,0.220829 0.7464,0.220829 h 0.46375 l -0.0133,-0.181078 c -0.004,-0.08258 -0.0187,-0.164274 -0.0442,-0.242913 -0.0309,-0.0662 -0.12809,-0.132493 -0.27383,-0.194328 l -0.0972,-0.04417 -0.0133,-0.662486 -0.0309,-1.713629 c -0.0354,-1.974209 -0.0662,-2.119953 -0.53883,-2.570444 -0.22082,-0.216412 -0.3754,-0.309164 -0.61831,-0.388655 -0.34449,-0.110421 -0.74198,-0.150172 -1.647379,-0.167839 h -0.317987 z m -30.35066,0 h -0.335659 c -0.733151,0.01329 -0.7729,0.02214 -1.210141,0.16342 l -0.264993,0.08834 v 0.340082 c 0.0089,0.229652 0.01767,0.344488 0.03533,0.362155 0.01767,0.01771 0.05742,0.01329 0.194329,-0.01771 0.543238,-0.132492 1.925624,-0.198745 2.384947,-0.114836 0.715485,0.132503 1.002561,0.459324 1.073226,1.21898 0.01325,0.119243 0.02208,0.388656 0.02208,0.596234 v 0.375406 l -0.06184,-0.0093 -0.198746,-0.04417 c -0.172246,-0.03088 -0.764066,-0.07948 -1.31172,-0.105993 -0.971645,-0.04417 -1.589965,0.07505 -2.066955,0.39749 -0.168138,0.0987 -0.306882,0.240497 -0.401907,0.41074 -0.181079,0.309164 -0.251744,0.560911 -0.251744,0.909816 0,0.432824 0.132497,0.861231 0.366575,1.148312 0.264993,0.326821 0.706651,0.538816 1.298471,0.618318 0.229661,0.03088 0.896563,0.03531 1.139475,0.0093 0.48507,-0.02473 0.954056,-0.182077 1.355886,-0.454908 0.158997,-0.132504 0.198746,-0.150172 0.242912,-0.132504 0.04417,0.02646 0.119246,0.176672 0.132496,0.269413 0.01324,0.05745 0.0265,0.07505 0.08834,0.101617 0.08834,0.03975 0.543239,0.05745 0.728734,0.02646 0.278244,-0.04417 0.344493,-0.08834 0.366576,-0.256152 0.01324,-0.07948 0.0089,-0.09277 -0.04417,-0.145754 -0.03091,-0.03088 -0.145747,-0.101616 -0.251744,-0.158994 L 71.55335,48.261775 v -1.165979 c 0,-0.883315 0.0089,-1.298472 0.03092,-1.682712 0.06625,-1.051142 -0.03092,-1.457466 -0.485823,-1.991876 -0.220828,-0.264985 -0.441657,-0.406323 -0.772899,-0.503482 -0.33566,-0.09719 -0.852397,-0.141337 -1.603214,-0.145753 z m 7.252005,0.07505 c -0.362159,0 -0.459324,0.04417 -0.459324,0.198745 0,0.101617 0.357743,1.254304 0.538822,1.735712 0.08833,0.220829 0.207579,0.552067 0.264994,0.728739 0.242911,0.693393 0.529988,1.364713 1.086476,2.557193 l 0.335659,0.733144 c 0.01767,0.07063 0.09275,0.114837 0.229661,0.128076 l 0.529989,0.0093 h 0.419574 l 0.229661,-0.485815 c 0.421833,-0.831183 0.790618,-1.688239 1.104142,-2.566027 0.07509,-0.181078 0.220829,-0.569744 0.317993,-0.861231 l 0.247328,-0.702237 c 0.14133,-0.340072 0.353326,-1.104144 0.370992,-1.311723 0,-0.08834 0,-0.09719 -0.06184,-0.132493 -0.05741,-0.02214 -0.119247,-0.03088 -0.331242,-0.03088 -0.375408,0 -0.47699,0.03531 -0.587405,0.211995 -0.05742,0.09719 -0.08832,0.176661 -0.154579,0.468158 -0.02209,0.101618 -0.14133,0.494649 -0.269411,0.874482 l -0.309159,0.936306 c -0.04417,0.13692 -0.145747,0.401907 -0.225246,0.591829 -0.08391,0.189911 -0.198745,0.485815 -0.264993,0.662476 -0.05742,0.176672 -0.150164,0.406334 -0.194329,0.507909 -0.04859,0.101617 -0.132498,0.300331 -0.189913,0.441657 -0.09717,0.251746 -0.172246,0.375406 -0.220829,0.375406 -0.0265,0 -0.185495,-0.264996 -0.322409,-0.538816 -0.211995,-0.432824 -0.370991,-0.861232 -0.693401,-1.907957 -0.366575,-1.19248 -0.428407,-1.369141 -0.794982,-2.243622 -0.132498,-0.335655 -0.203162,-0.379823 -0.596237,-0.379823 z m 6.991427,0 c -0.428407,0 -0.547654,0.01328 -0.605069,0.07063 -0.05768,0.101367 -0.09095,0.214776 -0.09717,0.331237 0,0.11042 0.04417,0.158994 0.291494,0.269414 l 0.203162,0.09277 v 5.335214 h 0.980478 l -0.0044,-1.89029 c -0.0089,-2.071367 -0.03533,-3.921906 -0.06184,-4.041159 -0.01324,-0.04417 -0.03533,-0.08834 -0.053,-0.101617 -0.06626,-0.0486 -0.234078,-0.0662 -0.653653,-0.0662 z m 25.47476,0 c -0.35332,0 -0.41516,0.110409 -0.56973,0.662486 -0.42361,1.466472 -0.95809,2.898622 -1.5988,4.284073 -0.0398,0.06188 -0.10599,0.07948 -0.15458,0.03531 -0.17224,-0.159004 -0.58299,-1.165979 -1.17482,-2.884024 -0.0988,-0.287533 -0.1989,-0.574613 -0.30032,-0.861231 l -0.0972,-0.370989 c -0.11483,-0.463742 -0.18549,-0.613902 -0.34449,-0.728738 -0.11924,-0.08834 -0.2694,-0.12366 -0.51673,-0.114827 -0.265,0.01329 -0.33126,0.03974 -0.34009,0.132494 -0.0133,0.132503 0.17666,0.839147 0.35333,1.302888 0.075,0.176661 0.20317,0.543244 0.29149,0.80823 0.27378,0.79774 0.58926,1.580551 0.94515,2.345198 0.21573,0.492411 0.43954,0.981247 0.67132,1.466309 0.2352,0.01788 0.47083,0.02965 0.70664,0.03532 l 0.30917,0.0041 0.0662,-0.0662 c 0.10601,-0.110419 0.22967,-0.344499 0.54324,-1.020235 0.29149,-0.627152 0.42842,-0.953974 0.48141,-1.117384 0.0133,-0.04417 0.12808,-0.322415 0.25616,-0.618319 0.15017,-0.357749 0.30474,-0.759655 0.45049,-1.192479 l 0.28708,-0.830314 c 0.0329,-0.08325 0.0595,-0.168884 0.0795,-0.256163 l 0.11926,-0.415157 c 0.13249,-0.406323 0.1369,-0.494659 0.0309,-0.54765 -0.10423,-0.03274 -0.21323,-0.04768 -0.32242,-0.04417 l -0.17224,-0.0041 z m 43.45903,0.0093 c -0.19209,-0.01493 -0.38533,-0.003 -0.57415,0.03531 -0.13249,0.03974 -0.20316,0.114827 -0.22083,0.220829 -0.0353,0.167828 0.0441,0.295904 0.24733,0.388656 l 0.12366,0.05745 0.0133,1.104134 0.022,2.685279 0.0133,1.576719 0.0618,0.01329 c 0.0309,0 0.11924,0.01329 0.19433,0.01329 0.075,0.0041 0.2385,0.0093 0.36216,0.0041 0.26499,-0.0041 0.37099,-0.04417 0.40632,-0.150161 0.0662,-0.203161 0.0928,-1.832871 0.0619,-3.714338 -0.0265,-1.470716 -0.0441,-1.960948 -0.0928,-2.084618 -0.053,-0.141326 -0.0795,-0.15016 -0.61832,-0.15016 z m -39.17496,0.605069 c 0.106,0 0.20316,0 0.28709,0.0093 0.61389,0.05302 0.9628,0.256163 1.16597,0.680154 0.1899,0.397489 0.30474,0.82148 0.27824,1.055559 -0.0133,0.141327 -0.0883,0.309154 -0.15016,0.344488 -0.0354,0.02214 -0.265,0.02646 -1.12181,0.02646 -0.57433,0.01478 -1.14904,0.0045 -1.72247,-0.03088 -0.51673,-0.03088 -0.60948,-0.07063 -0.60948,-0.256153 0,-0.159004 0.0883,-0.635986 0.15458,-0.80824 0.16341,-0.441658 0.48583,-0.79498 0.81706,-0.896556 0.29429,-0.07716 0.59678,-0.118679 0.90098,-0.123669 z m -24.569362,0.03088 c 0.211996,0 0.441657,0.02203 0.609486,0.06188 0.388659,0.09719 0.750817,0.256153 0.830316,0.366572 0.07067,0.09719 0.181079,0.326822 0.238494,0.494659 0.08434,0.279216 0.126029,0.569566 0.123665,0.861231 v 0.264987 l -0.101586,0.01328 c -0.150164,0.01771 -2.870769,0.0093 -3.069515,-0.0093 -0.331242,-0.03088 -0.375408,-0.07948 -0.353325,-0.423991 0.03976,-0.874481 0.543237,-1.457466 1.373552,-1.607626 0.09717,-0.01329 0.220829,-0.02203 0.348909,-0.02203 z m 40.610342,0.101617 c 0.69341,0 0.83915,0.01771 1.07764,0.132503 0.30279,0.183138 0.53472,0.463317 0.65808,0.79498 0.16817,0.562183 0.22812,1.151175 0.17666,1.735712 9.8e-4,0.449206 -0.0892,0.893942 -0.265,1.307306 -0.12373,0.256175 -0.3287,0.464247 -0.58298,0.591818 -0.18992,0.09277 -0.35333,0.13691 -0.63599,0.167827 -0.20758,0.02214 -0.67574,0.02214 -0.89215,0 -0.19875,-0.02646 -0.38424,-0.07505 -0.59181,-0.16341 -0.22083,-0.09277 -0.66249,-0.340072 -0.67575,-0.375406 -0.004,-0.01329 0,-0.78173 0.0133,-1.700379 l 0.0265,-1.673878 0.17224,-0.225245 c 0.41958,-0.556494 0.51232,-0.591828 1.5193,-0.591828 z m 28.41179,0.0041 c 0.78615,0 0.98931,0.03531 1.25431,0.225245 0.49464,0.353333 0.69781,0.883315 0.72872,1.907957 0.0177,0.574162 -0.0574,1.338224 -0.15457,1.598804 -0.18354,0.388724 -0.49552,0.70226 -0.88332,0.887732 -0.0662,0.02646 -0.18992,0.06188 -0.28707,0.07948 -0.20759,0.03532 -0.93632,0.05302 -1.15273,0.02646 -0.49949,-0.07462 -0.93813,-0.371914 -1.19247,-0.80823 -0.11925,-0.207578 -0.17667,-0.348904 -0.20759,-0.529982 -0.0354,-0.198745 -0.0397,-1.612054 0,-1.907957 0.022,-0.352941 0.15495,-0.68991 0.37983,-0.962818 0.16783,-0.207578 0.28266,-0.309164 0.44166,-0.384239 0.22966,-0.11042 0.41958,-0.132504 1.07323,-0.132504 z m -57.578801,2.672091 c 0.896561,-0.0093 1.572301,0.141327 1.678281,0.379823 0.0222,0.06188 0.0265,0.114836 0.004,0.41074 -0.0265,0.499076 -0.11924,0.741988 -0.35331,0.971651 -0.20316,0.203161 -0.44166,0.309154 -0.81265,0.357738 -0.260581,0.03531 -0.534411,0.04417 -0.896566,0.02646 -0.503493,-0.02214 -0.750812,-0.101617 -0.94514,-0.300331 -0.185505,-0.185495 -0.27383,-0.432824 -0.27383,-0.764062 0,-0.335665 0.105992,-0.618319 0.309154,-0.79498 0.220829,-0.207578 0.446079,-0.264996 1.104144,-0.28708 z m 35.730031,0 h 0.16783 c 0.64482,0.01771 0.90098,0.05745 1.24547,0.194328 l 0.20758,0.0839 v 0.291487 c 0,0.322415 -0.0133,0.450491 -0.0883,0.67132 -0.14127,0.431914 -0.49805,0.758547 -0.94073,0.861231 -0.17666,0.03974 -1.05998,0.05744 -1.27197,0.02646 -0.42841,-0.05745 -0.73315,-0.225245 -0.86123,-0.481408 -0.11482,-0.270256 -0.14558,-0.568824 -0.0883,-0.856815 0.066,-0.362821 0.34557,-0.649322 0.70665,-0.724311 0.30633,-0.05167 0.61691,-0.07384 0.92748,-0.0662 z m -66.252937,0.01771 c 0.666902,0 1.073226,0.0486 1.298471,0.15016 0.08834,0.04417 0.132497,0.07505 0.15458,0.119253 0.07509,0.145743 0.08834,0.675726 0.01767,0.949556 -0.11483,0.485826 -0.45049,0.79498 -0.927479,0.865648 -0.234078,0.03531 -1.126225,0.05302 -1.311721,0.03088 -0.309159,-0.04417 -0.525571,-0.154577 -0.755233,-0.388657 -0.189912,-0.185494 -0.220828,-0.269413 -0.220828,-0.618318 0,-0.463742 0.0795,-0.635986 0.375407,-0.865648 0.295911,-0.220829 0.331244,-0.229662 1.064394,-0.238496 h 0.304743 z m 24.026132,1.638543 c -0.189913,0.0041 -0.552071,0.06188 -0.653652,0.106003 -0.101576,0.04417 -0.123664,0.08834 -0.198746,0.379822 -0.03091,0.132494 -0.119247,0.446075 -0.189912,0.706655 -0.07509,0.256152 -0.397491,1.634126 -0.340076,1.726879 0.0265,0.04417 0.03975,0.04417 0.132497,0.03088 l 0.317993,-0.03531 c 0.309159,-0.03531 0.317993,-0.02646 0.344493,-0.211995 0.154579,-0.3975 0.260577,-0.764073 0.344492,-1.05557 0.158996,-0.521149 0.304743,-0.905389 0.397491,-1.073227 0.06183,-0.114825 0.07067,-0.145743 0.07509,-0.295903 0.0089,-0.154577 0.0044,-0.167828 -0.03975,-0.220829 -0.04417,-0.05302 -0.05742,-0.05745 -0.189912,-0.05745 z"
   id="path896"
   sodipodi:nodetypes="ccccccccccscsccccscccscccccccccccccccccccccccccccccccccccccccccccccccccccccccccccccccccccccccccsccccccccccccccccccccccccccccccccccccccccccccccccccccccccsccscccccccccccccscccccccccccccccccccccccccccccscccccccsccccssccccccccccccccccccccccccccccsccccccccsscsccscccccccccccccccccccccccccsccscccccccccsccccccccccccsscccccccccccccccccccccsccccccsccccccccccccsccccccscccccccccccccsccccccccsccccccccccccccccccccccccccccccccccccccccccccccccccccccccccccccccccccsccccccccccccccccccccccccccccccccccccccccccccccccccccscccccccscccccccccccccccscccccccccccccccccc" /></svg>